# outputs the expected snapshot

    Code
      scenarios
    Output
      # A tibble: 56,680 x 12
         scenario model is_net0 is_2dii region  year sector technology target variable
         <chr>    <chr> <lgl>   <lgl>   <chr>  <dbl> <chr>  <chr>      <chr>  <chr>   
       1 etp_2017 2ds   FALSE   TRUE    global  2020 autom~ electric   produ~ smsp    
       2 etp_2017 2ds   FALSE   TRUE    global  2020 autom~ electric   produ~ tmsr    
       3 etp_2017 2ds   FALSE   TRUE    global  2020 autom~ hybrid     produ~ smsp    
       4 etp_2017 2ds   FALSE   TRUE    global  2020 autom~ hybrid     produ~ tmsr    
       5 etp_2017 2ds   FALSE   TRUE    global  2020 autom~ ice        produ~ smsp    
       6 etp_2017 2ds   FALSE   TRUE    global  2020 autom~ ice        produ~ tmsr    
       7 etp_2017 2ds   FALSE   TRUE    global  2021 autom~ electric   produ~ smsp    
       8 etp_2017 2ds   FALSE   TRUE    global  2021 autom~ electric   produ~ tmsr    
       9 etp_2017 2ds   FALSE   TRUE    global  2021 autom~ hybrid     produ~ smsp    
      10 etp_2017 2ds   FALSE   TRUE    global  2021 autom~ hybrid     produ~ tmsr    
      # ... with 56,670 more rows, and 2 more variables: value <dbl>, unit <chr>
